…
I would like to combine A and B into one geom_line() plot, with Diff a
separate geom_col() plot, all in the same face_grid

``` r
tibble(Day = 1:10, A = runif(10,20,30), B = runif(10,20,30), Diff = A-B) %>%
  pivot_longer(-Day, names_to = "Param", values_to = "Value")
```

    ## # A tibble: 30 × 3
    ##      Day Param  Value
    ##    <int> <chr>  <dbl>
    ##  1     1 A     24.4  
    ##  2     1 B     24.9  
    ##  3     1 Diff  -0.437
    ##  4     2 A     21.0  
    ##  5     2 B     21.2  
    ##  6     2 Diff  -0.185
    ##  7     3 A     27.1  
    ##  8     3 B     26.8  
    ##  9     3 Diff   0.309
    ## 10     4 A     20.6  
    ## # … with 20 more rows
…
